{
	"variables": [],
	"info": {
		"name": "MMKK-0.2.5",
		"_postman_id": "bc79a14c-ec40-96b3-e7e1-9ddf5fc071bf",
		"description": "",
		"schema": "https://schema.getpostman.com/json/collection/v2.0.0/collection.json"
	},
	"item": [
		{
			"name": "01 Order List",
			"description": "",
			"item": [
				{
					"name": "/orders",
					"event": [
						{
							"listen": "test",
							"script": {
								"type": "text/javascript",
								"exec": "tests[\"Response time is less than 5s\"] = responseTime < 5000;\ntests[\"Response code is 200\"] = responseCode.code === 200;\n\nvar responseJSON;\ntry {\n    var responseJSON = JSON.parse(responseBody);\n    tests[\"Response is JSON and has data\"] = responseJSON && (responseJSON.length > 0);\n}\ncatch(e) {\n    var errorMessage = \"Cannot parse response, probably not a valid JSON.\";\n    tests[\"\"+errorMessage] = false;\n    console.log(errorMessage);\n}\n\n\nvar schema = {\n  \"$schema\": \"http://json-schema.org/draft-04/schema#\",\n  \"type\": \"array\",\n  \"items\": {\n    \"type\": \"object\",\n    \"properties\": {\n        \"id\": {\n            \"type\": \"integer\"\n        },\n        \"orderNo\": {\n            \"type\": \"integer\"\n        },\n        \"MAT\": {\n            \"type\": \"string\"\n        },\n        \"orderStatus\": {\n            \"type\": \"string\",\n            \"enum\": [\"CRTD\", \"REL\", \"TECO\", \"CLSD\"]\n        },\n        \"failure\": {\n            \"type\": \"string\"\n        },\n        \"customerName\": {\n            \"type\": \"string\"\n        },\n        \"contactNumber\": {\n            \"type\": \"string\"\n        },\n        \"model\": {\n            \"type\": \"string\"\n        },\n        \"machineLocation\": {\n            \"type\": \"string\"\n        },\n        \"machineSN\": {\n            \"type\": \"string\"\n        },\n        \"createdDate\": {\n            \"type\": \"integer\"\n        },\n        \"plannedDate\": {\n            \"type\": \"integer\"\n        },\n        \"closedDate\": {\n            \"type\": \"integer\"\n        },\n        \"HMR\": {\n            \"type\": \"integer\"\n        },\n        \"breakDown\": {\n            \"type\": \"boolean\"\n        },\n        \"mechanic\": {\n            \"type\": [\"string\", \"null\"]\n        }\n    },\n    \"required\": [\"id\", \"orderNo\", \"MAT\", \"orderStatus\", \"failure\", \"customerName\", \"contactNumber\",\n    \"model\", \"machineLocation\", \"machineSN\", \"createdDate\", \"plannedDate\", \"closedDate\", \n    \"HMR\", \"breakDown\", \"mechanic\"],\n    \"additionalItems\": false\n  },\n  \"minItems\": 1,\n  \"exclusiveMinimum\": true,\n  \"uniqueItems\": true\n};\n\n\ntests[\"Valid Schema\"] = tv4.validate(responseJSON, schema);\nif(tv4.error) {\n    console.log(tv4.error);\n    tests[\"error=\" + tv4.error + \", dataPath=\" + tv4.error.dataPath] = false;    \n}\n\n\n\n\n\n"
							}
						}
					],
					"request": {
						"url": "{{rootURL}}/api/v1/orders",
						"method": "GET",
						"header": [
							{
								"key": "Authorization",
								"value": "Basic",
								"description": ""
							}
						],
						"body": {
							"mode": "formdata",
							"formdata": []
						},
						"description": "Retrieves a list of all orders"
					},
					"response": []
				},
				{
					"name": "/orders?status=closed",
					"event": [
						{
							"listen": "test",
							"script": {
								"type": "text/javascript",
								"exec": "tests[\"Response time is less than 5s\"] = responseTime < 5000;\ntests[\"Response code is 200\"] = responseCode.code === 200;\n\nvar responseJSON;\ntry {\n    var responseJSON = JSON.parse(responseBody);\n    tests[\"Response is JSON and has data\"] = responseJSON && (responseJSON.length > 0);\n}\ncatch(e) {\n    var errorMessage = \"Cannot parse response, probably not a valid JSON.\";\n    tests[\"\"+errorMessage] = false;\n    console.log(errorMessage);\n}\n\n\nvar schema = {\n  \"$schema\": \"http://json-schema.org/draft-04/schema#\",\n  \"type\": \"array\",\n  \"items\": {\n    \"type\": \"object\",\n    \"properties\": {\n        \"id\": {\n            \"type\": \"integer\"\n        },\n        \"orderNo\": {\n            \"type\": \"integer\"\n        },\n        \"MAT\": {\n            \"type\": \"string\"\n        },\n        \"orderStatus\": {\n            \"type\": \"string\",\n            \"enum\": [\"TECO\"]\n        },\n        \"failure\": {\n            \"type\": \"string\"\n        },\n        \"customerName\": {\n            \"type\": \"string\"\n        },\n        \"contactNumber\": {\n            \"type\": \"string\"\n        },\n        \"model\": {\n            \"type\": \"string\"\n        },\n        \"machineLocation\": {\n            \"type\": \"string\"\n        },\n        \"machineSN\": {\n            \"type\": \"string\"\n        },\n        \"createdDate\": {\n            \"type\": \"integer\"\n        },\n        \"plannedDate\": {\n            \"type\": \"integer\"\n        },\n        \"closedDate\": {\n            \"type\": \"integer\"\n        },\n        \"HMR\": {\n            \"type\": \"integer\"\n        },\n        \"breakDown\": {\n            \"type\": \"boolean\"\n        },\n        \"mechanic\": {\n            \"type\": [\"string\", \"null\"]\n        }\n    },\n    \"required\": [\"id\", \"orderNo\", \"MAT\", \"orderStatus\", \"failure\", \"customerName\", \"contactNumber\",\n    \"model\", \"machineLocation\", \"machineSN\", \"createdDate\", \"plannedDate\", \"closedDate\", \n    \"HMR\", \"breakDown\", \"mechanic\"],\n    \"additionalItems\": false\n  },\n  \"minItems\": 1,\n  \"exclusiveMinimum\": true,\n  \"uniqueItems\": true\n};\n\n\ntests[\"Valid Schema\"] = tv4.validate(responseJSON, schema);\nif(tv4.error) {\n    console.log(tv4.error);\n    tests[\"error=\" + tv4.error + \", dataPath=\" + tv4.error.dataPath] = false;    \n}\n\n\n\n"
							}
						}
					],
					"request": {
						"url": "{{rootURL}}/api/v1/orders?status=closed",
						"method": "GET",
						"header": [
							{
								"key": "Authorization",
								"value": "Basic",
								"description": ""
							}
						],
						"body": {
							"mode": "formdata",
							"formdata": []
						},
						"description": "Retrieves a list of closed orders"
					},
					"response": []
				},
				{
					"name": "/orders?status=active",
					"event": [
						{
							"listen": "test",
							"script": {
								"type": "text/javascript",
								"exec": "tests[\"Response time is less than 5s\"] = responseTime < 5000;\ntests[\"Response code is 200\"] = responseCode.code === 200;\n\nvar responseJSON;\ntry {\n    var responseJSON = JSON.parse(responseBody);\n    tests[\"Response is JSON and has data\"] = responseJSON && (responseJSON.length > 0);\n}\ncatch(e) {\n    var errorMessage = \"Cannot parse response, probably not a valid JSON.\";\n    tests[\"\"+errorMessage] = false;\n    console.log(errorMessage);\n}\n\n\nvar schema = {\n  \"$schema\": \"http://json-schema.org/draft-04/schema#\",\n  \"type\": \"array\",\n  \"items\": {\n    \"type\": \"object\",\n    \"properties\": {\n        \"id\": {\n            \"type\": \"integer\"\n        },\n        \"orderNo\": {\n            \"type\": \"integer\"\n        },\n        \"MAT\": {\n            \"type\": \"string\"\n        },\n        \"orderStatus\": {\n            \"type\": \"string\",\n            \"enum\": [\"CRTD\", \"REL\"]\n        },\n        \"failure\": {\n            \"type\": \"string\"\n        },\n        \"customerName\": {\n            \"type\": \"string\"\n        },\n        \"contactNumber\": {\n            \"type\": \"string\"\n        },\n        \"model\": {\n            \"type\": \"string\"\n        },\n        \"machineLocation\": {\n            \"type\": \"string\"\n        },\n        \"machineSN\": {\n            \"type\": \"string\"\n        },\n        \"createdDate\": {\n            \"type\": \"integer\"\n        },\n        \"plannedDate\": {\n            \"type\": \"integer\"\n        },\n        \"closedDate\": {\n            \"type\": \"integer\"\n        },\n        \"HMR\": {\n            \"type\": \"integer\"\n        },\n        \"breakDown\": {\n            \"type\": \"boolean\"\n        },\n        \"mechanic\": {\n            \"type\": [\"string\", \"null\"]\n        }\n    },\n    \"required\": [\"id\", \"orderNo\", \"MAT\", \"orderStatus\", \"failure\", \"customerName\", \"contactNumber\",\n    \"model\", \"machineLocation\", \"machineSN\", \"createdDate\", \"plannedDate\", \"closedDate\", \n    \"HMR\", \"breakDown\", \"mechanic\"],\n    \"additionalItems\": false\n  },\n  \"minItems\": 1,\n  \"exclusiveMinimum\": true,\n  \"uniqueItems\": true\n};\n\n\ntests[\"Valid Schema\"] = tv4.validate(responseJSON, schema);\nif(tv4.error) {\n    console.log(tv4.error);\n    tests[\"error=\" + tv4.error + \", dataPath=\" + tv4.error.dataPath] = false;    \n}\n\n\n\n"
							}
						}
					],
					"request": {
						"url": "{{rootURL}}/api/v1/orders?status=active",
						"method": "GET",
						"header": [
							{
								"key": "Authorization",
								"value": "Basic",
								"description": ""
							}
						],
						"body": {
							"mode": "formdata",
							"formdata": []
						},
						"description": "Retrieves a list of active orders"
					},
					"response": []
				}
			]
		},
		{
			"name": "02 Order Details - Basic",
			"description": "",
			"item": [
				{
					"name": "/orders/:orderNo",
					"event": [
						{
							"listen": "test",
							"script": {
								"type": "text/javascript",
								"exec": "tests[\"Response time is less than 5s\"] = responseTime < 5000;\ntests[\"Response code is 200\"] = responseCode.code === 200;\n\nvar responseJSON;\ntry {\n    var responseJSON = JSON.parse(responseBody);\n    tests[\"Response is JSON and has data\"] = responseJSON && (responseBody.length > 0);\n}\ncatch(e) {\n    var errorMessage = \"Cannot parse response, probably not a valid JSON.\";\n    tests[\"\"+errorMessage] = false;\n    console.log(errorMessage);\n}\n\n\nvar schema = {\n  \"$schema\": \"http://json-schema.org/draft-04/schema#\",\n  \"type\": \"object\",\n  \"properties\": {\n      \"id\": {\n          \"type\": \"integer\"\n      },\n      \"orderNo\": {\n          \"type\": \"integer\"\n      },\n      \"MAT\": {\n          \"type\": \"string\"\n      },\n      \"orderStatus\": {\n            \"type\": \"string\",\n            \"enum\": [\"CRTD\", \"REL\", \"TECO\", \"CLSD\"]\n      },\n      \"failure\": {\n          \"type\": \"string\"\n      },\n      \"smsContent\": {\n          \"type\": \"string\"\n      },\n      \"customerName\": {\n          \"type\": \"string\"\n      },\n      \"contactPerson\": {\n          \"type\": \"string\"\n      },\n      \"contactNumber\": {\n          \"type\": \"string\"\n      },\n      \"model\": {\n          \"type\": \"string\"\n      },\n      \"machineLocation\": {\n          \"type\": \"string\"\n      },\n      \"machineSN\": {\n          \"type\": \"string\"\n      },\n      \"HMR\": {\n          \"type\": \"integer\"\n      },\n      \"createdDatetime\": {\n          \"type\": \"integer\"\n      },\n      \"plannedDatetime\": {\n          \"type\": \"integer\"\n      },\n      \"deliveryDatetime\": {\n          \"type\": \"integer\"\n      },\n      \"closedDatetime\": {\n          \"type\": \"integer\"\n      },\n      \"attentionForMachine\": {\n          \"type\": \"string\"\n      },\n      \"attentionForCustomer\": {\n          \"type\": \"string\"\n      },\n      \"breakDown\": {\n          \"type\": \"boolean\"\n      }\n  },\n    \"required\": [\"id\", \"orderNo\", \"MAT\", \"orderStatus\", \"failure\", \"smsContent\", \"customerName\",\n    \"contactPerson\", \"contactNumber\", \"model\", \"machineLocation\", \"machineSN\", \"HMR\", \n    \"createdDatetime\", \"plannedDatetime\", \"deliveryDatetime\", \"closedDatetime\", \"attentionForMachine\", \n    \"attentionForCustomer\", \"breakDown\"],\n  \"additionalItems\": false\n};\n\n\ntests[\"Valid Schema\"] = tv4.validate(responseJSON, schema);\nif(tv4.error) {\n    console.log(tv4.error);\n    tests[\"error=\" + tv4.error + \", dataPath=\" + tv4.error.dataPath] = false;    \n}\n\n\n\n"
							}
						}
					],
					"request": {
						"url": "{{rootURL}}/api/v1/orders/7460608",
						"method": "GET",
						"header": [
							{
								"key": "Authorization",
								"value": "Basic",
								"description": ""
							}
						],
						"body": {
							"mode": "formdata",
							"formdata": []
						},
						"description": "Retrieves the details of a given order"
					},
					"response": []
				},
				{
					"name": "/orders/:orderNo/history",
					"event": [
						{
							"listen": "test",
							"script": {
								"type": "text/javascript",
								"exec": "tests[\"Response time is less than 5s\"] = responseTime < 5000;\ntests[\"Response code is 200\"] = responseCode.code === 200;\n \nvar responseJSON;\ntry {\n    var responseJSON = JSON.parse(responseBody);\n    tests[\"Response is JSON and has data\"] = responseJSON && (responseBody.length > 0);\n}\ncatch(e) {\n    var errorMessage = \"Cannot parse response, probably not a valid JSON.\";\n    tests[\"\"+errorMessage] = false;\n    console.log(errorMessage);\n}\n \n \nvar schema = {\n  \"$schema\": \"http://json-schema.org/draft-04/schema#\",\n  \"type\": \"array\",\n  \"items\": {\n    \"type\": \"object\",\n    \"properties\": {\n        \"id\": {\n            \"type\": \"integer\"\n        },\n        \"orderNo\": {\n            \"type\": \"integer\"\n        },\n        \"MAT\": {\n            \"type\": \"string\"\n        },\n        \"orderStatus\": {\n            \"type\": \"string\",\n            \"enum\": [\"TECO\", \"REL\", \"CRTD\", \"CLSD\"]\n        },\n        \"failure\": {\n            \"type\": \"string\"\n        },\n        \"customerName\": {\n            \"type\": \"string\"\n        },\n        \"contactNumber\": {\n            \"type\": \"string\"\n        },\n        \"model\": {\n            \"type\": \"string\"\n        },\n        \"machineLocation\": {\n            \"type\": \"string\"\n        },\n        \"machineSN\": {\n            \"type\": \"string\"\n        },\n        \"createdDate\": {\n            \"type\": \"integer\"\n        },\n        \"plannedDate\": {\n            \"type\": \"integer\"\n        },\n        \"closedDate\": {\n            \"type\": \"integer\"\n        },\n        \"HMR\": {\n            \"type\": \"integer\"\n        },\n        \"breakDown\": {\n            \"type\": \"boolean\"\n        },\n        \"mechanic\": {\n            \"type\": [\"string\", \"null\"]\n        }\n    },\n    \"required\": [\"id\", \"orderNo\", \"MAT\", \"orderStatus\", \"failure\", \"customerName\", \"contactNumber\",\n    \"model\", \"machineLocation\", \"machineSN\", \"createdDate\", \"plannedDate\", \"closedDate\", \"HMR\",\n    \"breakDown\", \"mechanic\"],\n    \"additionalItems\": false\n  },\n  \"minItems\": 1,\n  \"exclusiveMinimum\": true,\n  \"uniqueItems\": true\n}\n \n \ntests[\"Valid Schema\"] = tv4.validate(responseJSON, schema);\nif(tv4.error) {\n    console.log(tv4.error);\n    tests[\"error=\" + tv4.error + \", dataPath=\" + tv4.error.dataPath] = false;   \n}\n\n\n\n\n"
							}
						}
					],
					"request": {
						"url": "{{rootURL}}/api/v1/orders/7460608/history",
						"method": "GET",
						"header": [
							{
								"key": "Authorization",
								"value": "Basic",
								"description": ""
							}
						],
						"body": {
							"mode": "formdata",
							"formdata": []
						},
						"description": "Retrieves the history for a given order/machine"
					},
					"response": []
				},
				{
					"name": "/orders/:orderNo/edit",
					"event": [
						{
							"listen": "test",
							"script": {
								"type": "text/javascript",
								"exec": "tests[\"Response time is less than 5s\"] = responseTime < 5000;\ntests[\"Response code is 200\"] = responseCode.code === 200;\n\nvar responseJSON;\ntry {\n    var responseJSON = JSON.parse(responseBody);\n    tests[\"Response is JSON and has data\"] = responseJSON && (responseBody.length > 0);\n}\ncatch(e) {\n    var errorMessage = \"Cannot parse response, probably not a valid JSON.\";\n    tests[\"\"+errorMessage] = false;\n    console.log(errorMessage);\n}\n\n\nvar schema = {\n  \"$schema\": \"http://json-schema.org/draft-04/schema#\",\n  \"type\": \"object\",\n  \"properties\": {\n      \"id\": {\n          \"type\": \"integer\"\n      },\n      \"orderNo\": {\n          \"type\": \"integer\"\n      },\n      \"MAT\": {\n          \"type\": \"string\"\n      },\n      \"orderStatus\": {\n            \"type\": \"string\",\n            \"enum\": [\"CRTD\", \"REL\", \"TECO\", \"CLSD\"]\n      },\n      \"failure\": {\n          \"type\": \"string\"\n      },\n      \"smsContent\": {\n          \"type\": \"string\"\n      },\n      \"customerName\": {\n          \"type\": \"string\"\n      },\n      \"contactPerson\": {\n          \"type\": \"string\"\n      },\n      \"contactNumber\": {\n          \"type\": \"string\"\n      },\n      \"model\": {\n          \"type\": \"string\"\n      },\n      \"machineLocation\": {\n          \"type\": \"string\"\n      },\n      \"machineSN\": {\n          \"type\": \"string\"\n      },\n      \"HMR\": {\n          \"type\": \"integer\"\n      },\n      \"createdDatetime\": {\n          \"type\": \"integer\"\n      },\n      \"plannedDatetime\": {\n          \"type\": \"integer\"\n      },\n      \"deliveryDatetime\": {\n          \"type\": \"integer\"\n      },\n      \"closedDatetime\": {\n          \"type\": \"integer\"\n      },\n      \"attentionForMachine\": {\n          \"type\": \"string\"\n      },\n      \"attentionForCustomer\": {\n          \"type\": \"string\"\n      },\n      \"breakDown\": {\n          \"type\": \"boolean\"\n      }\n  },\n    \"required\": [\"id\", \"orderNo\", \"MAT\", \"orderStatus\", \"failure\", \"smsContent\", \"customerName\",\n    \"contactPerson\", \"contactNumber\", \"model\", \"machineLocation\", \"machineSN\", \"HMR\", \n    \"createdDatetime\", \"plannedDatetime\", \"deliveryDatetime\", \"closedDatetime\", \"attentionForMachine\", \n    \"attentionForCustomer\", \"breakDown\"],\n  \"additionalItems\": false\n};\n\n\ntests[\"Valid Schema\"] = tv4.validate(responseJSON, schema);\nif(tv4.error) {\n    console.log(tv4.error);\n    tests[\"error=\" + tv4.error + \", dataPath=\" + tv4.error.dataPath] = false;    \n}\n\nconsole.log(responseJSON.attentionForCustomer);\n\ntests[\"attentionForCustomer has been updated\"] = (responseJSON.attentionForCustomer == \"Please call me in two days.(1)\");\ntests[\"attentionForMachine has been updated\"] = (responseJSON.attentionForMachine == \"There is another leakage, Dorsz.(1)\");\ntests[\"machineLocation has been updated\"] = (responseJSON.machineLocation == \"The new machine location as a String with address.(1)\");\n\n\n"
							}
						}
					],
					"request": {
						"url": "{{rootURL}}/api/v1/orders/7460608/edit",
						"method": "PUT",
						"header": [
							{
								"key": "Authorization",
								"value": "Basic",
								"description": ""
							},
							{
								"key": "Content-Type",
								"value": "application/json",
								"description": ""
							}
						],
						"body": {
							"mode": "raw",
							"raw": "{\n  \"orderNo\": 7654395,\n  \"machineLocation\": \"The new machine location as a String with address.(1)\",\n  \"attentionForMachine\": \"There is another leakage, Dorsz.(1)\",\n  \"attentionForCustomer\": \"Please call me in two days.(1)\"\n}"
						},
						"description": "Updates order details - basic"
					},
					"response": []
				},
				{
					"name": "/orders/:orderNo/release",
					"event": [
						{
							"listen": "test",
							"script": {
								"type": "text/javascript",
								"exec": "tests[\"Response time is less than 5s\"] = responseTime < 5000;\ntests[\"Response code is 200\"] = responseCode.code === 200;\n\nvar responseJSON;\ntry {\n    var responseJSON = JSON.parse(responseBody);\n    tests[\"Response is JSON and has data\"] = responseJSON && (responseBody.length > 0);\n}\ncatch(e) {\n    var errorMessage = \"Cannot parse response, probably not a valid JSON.\";\n    tests[\"\"+errorMessage] = false;\n    console.log(errorMessage);\n}\n\n\nvar schema = {\n  \"$schema\": \"http://json-schema.org/draft-04/schema#\",\n  \"type\": \"object\",\n  \"properties\": {\n      \"id\": {\n          \"type\": \"integer\"\n      },\n      \"orderNo\": {\n          \"type\": \"integer\"\n      },\n      \"MAT\": {\n          \"type\": \"string\"\n      },\n      \"orderStatus\": {\n            \"type\": \"string\",\n            \"enum\": [\"REL\"]\n      },\n      \"failure\": {\n          \"type\": \"string\"\n      },\n      \"smsContent\": {\n          \"type\": \"string\"\n      },\n      \"customerName\": {\n          \"type\": \"string\"\n      },\n      \"contactPerson\": {\n          \"type\": \"string\"\n      },\n      \"contactNumber\": {\n          \"type\": \"string\"\n      },\n      \"model\": {\n          \"type\": \"string\"\n      },\n      \"machineLocation\": {\n          \"type\": \"string\"\n      },\n      \"machineSN\": {\n          \"type\": \"string\"\n      },\n      \"HMR\": {\n          \"type\": \"integer\"\n      },\n      \"createdDatetime\": {\n          \"type\": \"integer\"\n      },\n      \"plannedDatetime\": {\n          \"type\": \"integer\"\n      },\n      \"deliveryDatetime\": {\n          \"type\": \"integer\"\n      },\n      \"closedDatetime\": {\n          \"type\": \"integer\"\n      },\n      \"attentionForMachine\": {\n          \"type\": \"string\"\n      },\n      \"attentionForCustomer\": {\n          \"type\": \"string\"\n      },\n      \"breakDown\": {\n          \"type\": \"boolean\"\n      }\n  },\n    \"required\": [\"id\", \"orderNo\", \"MAT\", \"orderStatus\", \"failure\", \"smsContent\", \"customerName\",\n    \"contactPerson\", \"contactNumber\", \"model\", \"machineLocation\", \"machineSN\", \"HMR\", \n    \"createdDatetime\", \"plannedDatetime\", \"deliveryDatetime\", \"closedDatetime\", \"attentionForMachine\", \n    \"attentionForCustomer\", \"breakDown\"],\n  \"additionalItems\": false\n};\n\n\ntests[\"Valid Schema\"] = tv4.validate(responseJSON, schema);\nif(tv4.error) {\n    console.log(tv4.error);\n    tests[\"error=\" + tv4.error + \", dataPath=\" + tv4.error.dataPath] = false;    \n}\n\n"
							}
						}
					],
					"request": {
						"url": "{{rootURL}}/api/v1/orders/7460608/release",
						"method": "PUT",
						"header": [
							{
								"key": "Authorization",
								"value": "Basic",
								"description": ""
							},
							{
								"key": "Content-Type",
								"value": "application/json",
								"description": ""
							}
						],
						"body": {
							"mode": "raw",
							"raw": "{ \n    \"id\": 0, \n    \"orderNo\": \"7654395\", \n    \"orderStatus\": \"REL\"\n}"
						},
						"description": "Releases the order"
					},
					"response": []
				}
			]
		},
		{
			"name": "03 Order Details - Parts",
			"description": "",
			"item": [
				{
					"name": "/orders/:orderNo/parts",
					"event": [
						{
							"listen": "test",
							"script": {
								"type": "text/javascript",
								"exec": "tests[\"Response time is less than 5s\"] = responseTime < 5000;\ntests[\"Response code is 200\"] = responseCode.code === 200;\n\nvar responseJSON;\ntry {\n    var responseJSON = JSON.parse(responseBody);\n    tests[\"Response is JSON and has data\"] = responseJSON && (responseBody.length > 0);\n}\ncatch(e) {\n    var errorMessage = \"Cannot parse response, probably not a valid JSON.\";\n    tests[\"\"+errorMessage] = false;\n    console.log(errorMessage);\n}\n\n\nvar schema = {\n  \"$schema\": \"http://json-schema.org/draft-04/schema#\",\n  \"type\": \"array\",\n  \"items\": {\n    \"type\": \"object\",\n    \"properties\": {\n        \"id\": {\n            \"type\": \"integer\"\n        },\n        \"partNumber\": {\n            \"type\": \"string\"\n        },\n        \"description\": {\n            \"type\": \"string\"\n        },\n        \"qty\": {\n            \"type\": \"integer\"\n        },\n        \"IC\": {\n            \"type\": \"string\"\n        },\n        \"PO\": {\n            \"type\": \"string\"\n        },\n        \"WMS\": {\n            \"type\": \"string\"\n        },\n        \"jobNo\": {\n            \"type\": \"string\"\n        },\n        \"oldSN\": {\n            \"type\": \"string\"\n        },\n        \"newSN\": {\n            \"type\": \"string\"\n        }\n    },\n    \"required\": [\"id\", \"partNumber\", \"description\", \n        \"qty\", \"IC\", \"PO\", \"WMS\", \"jobNo\", \"oldSN\", \"newSN\"],\n    \"additionalItems\": false\n  },\n  \"minItems\": 1,\n  \"exclusiveMinimum\": true,\n  \"uniqueItems\": true\n};\n\n\ntests[\"Valid Schema\"] = tv4.validate(responseJSON, schema);\nif(tv4.error) {\n    console.log(tv4.error);\n    tests[\"error=\" + tv4.error + \", dataPath=\" + tv4.error.dataPath] = false;    \n}\n\n\n\n"
							}
						}
					],
					"request": {
						"url": "{{rootURL}}/api/v1/orders/7460608/parts",
						"method": "GET",
						"header": [
							{
								"key": "Authorization",
								"value": "Basic",
								"description": ""
							}
						],
						"body": {
							"mode": "formdata",
							"formdata": []
						},
						"description": "Retrieves the list of parts for given order"
					},
					"response": []
				}
			]
		},
		{
			"name": "04 Order Details - Trips",
			"description": "",
			"item": [
				{
					"name": "/orders/:orderNo/jobs/:jobNo/trips ",
					"event": [
						{
							"listen": "test",
							"script": {
								"type": "text/javascript",
								"exec": "tests[\"Response time is less than 5s\"] = responseTime < 5000;\ntests[\"Response code is 200\"] = responseCode.code === 200;\n\nvar responseJSON;\ntry {\n    var responseJSON = JSON.parse(responseBody);\n    tests[\"Response is JSON and has data\"] = responseJSON && (responseBody.length > 0);\n}\ncatch(e) {\n    var errorMessage = \"Cannot parse response, probably not a valid JSON.\";\n    tests[\"\"+errorMessage] = false;\n    console.log(errorMessage);\n}\n\n\nvar schema = {\n  \"$schema\": \"http://json-schema.org/draft-04/schema#\",\n  \"type\": \"array\",\n  \"items\": {\n    \"type\": \"object\",\n    \"properties\": {\n        \"tripId\": {\n            \"type\": \"integer\"\n        },\n        \"tripNo\": {\n            \"type\": \"integer\"\n        }\n    },\n    \"required\": [\"tripDate\", \"tripNo\"],\n    \"additionalItems\": false\n  },\n  \"minItems\": 1,\n  \"exclusiveMinimum\": true,\n  \"uniqueItems\": true\n};\n\n\ntests[\"Valid Schema\"] = tv4.validate(responseJSON, schema);\nif(tv4.error) {\n    console.log(tv4.error);\n    tests[\"error=\" + tv4.error + \", dataPath=\" + tv4.error.dataPath] = false;    \n}\n\n\n\n"
							}
						}
					],
					"request": {
						"url": "{{rootURL}}/api/v1/orders/7460608/jobs/0010/trips ",
						"method": "GET",
						"header": [],
						"body": {
							"mode": "formdata",
							"formdata": []
						},
						"description": "Retrieves the list or trips for given order and job"
					},
					"response": []
				},
				{
					"name": "/orders/:orderNo/jobs/:jobNo/trips",
					"event": [
						{
							"listen": "test",
							"script": {
								"type": "text/javascript",
								"exec": "tests[\"Response time is less than 5s\"] = responseTime < 5000;\ntests[\"Response code is 200\"] = responseCode.code === 200;\n\nvar responseJSON;\ntry {\n    var responseJSON = JSON.parse(responseBody);\n    tests[\"Response is JSON and has data\"] = responseJSON && (responseBody.length > 0);\n}\ncatch(e) {\n    var errorMessage = \"Cannot parse response, probably not a valid JSON.\";\n    tests[\"\"+errorMessage] = false;\n    console.log(errorMessage);\n}\n\n\nvar schema = {\n  \"$schema\": \"http://json-schema.org/draft-04/schema#\",\n  \"type\": \"object\",\n  \"properties\": {\n    \"orderNo\": {\n      \"type\": \"string\"\n    },\n    \"jobNo\": {\n      \"type\": \"string\"\n    },\n    \"tripNumber\": {\n      \"type\": \"integer\"\n    },\n    \"tripId\": {\n      \"type\": \"integer\"\n    }\n  },\n  \"required\": [\n    \"tripNo\",\n    \"tripDate\"\n  ],\n  \"additionalItems\": false\n};\n\n\ntests[\"Valid Schema\"] = tv4.validate(responseJSON, schema);\nif(tv4.error) {\n    console.log(tv4.error);\n    tests[\"error=\" + tv4.error + \", dataPath=\" + tv4.error.dataPath] = false;    \n}\n\n\n\n"
							}
						}
					],
					"request": {
						"url": "{{rootURL}}/api/v1/orders/7460608/jobs/0010/trips",
						"method": "PUT",
						"header": [
							{
								"key": "Content-Type",
								"value": "application/json",
								"description": ""
							}
						],
						"body": {
							"mode": "raw",
							"raw": ""
						},
						"description": "Add trip to the job"
					},
					"response": []
				},
				{
					"name": "/orders/:orderNo/jobs/:jobNo/trips/:tripNo",
					"event": [
						{
							"listen": "test",
							"script": {
								"type": "text/javascript",
								"exec": "tests[\"Response time is less than 5s\"] = responseTime < 5000;\ntests[\"Response code is 200\"] = responseCode.code === 200;\n\nvar responseJSON;\ntry {\n    var responseJSON = JSON.parse(responseBody);\n    tests[\"Response is JSON and has data\"] = responseJSON && (responseBody.length > 0);\n}\ncatch(e) {\n    var errorMessage = \"Cannot parse response, probably not a valid JSON.\";\n    tests[\"\"+errorMessage] = false;\n    console.log(errorMessage);\n}\n\n\nvar schema = {\n  \"$schema\": \"http://json-schema.org/draft-04/schema#\",\n  \"type\": \"object\",\n  \"properties\": {\n    \"tripId\": {\n      \"type\": \"integer\"\n    },\n    \"tripDate\": {\n      \"type\": \"integer\"\n    },\n    \"dispatch\": {\n      \"type\": \"integer\"\n    },\n    \"arriveAtSite\": {\n      \"type\": \"integer\"\n    },\n    \"jobStart\": {\n      \"type\": \"integer\"\n    },\n    \"jobComplete\": {\n      \"type\": \"integer\"\n    },\n    \"leaveFromSite\": {\n      \"type\": \"integer\"\n    },\n    \"backToOffice\": {\n      \"type\": \"integer\"\n    },\n    \"drivingHours\": {\n      \"type\": \"number\"\n    },\n    \"drivingMileage\": {\n      \"type\": \"integer\"\n    },\n    \"waitingHours\": {\n      \"type\": \"number\"\n    },\n    \"workingHours\": {\n      \"type\": \"integer\"\n    }\n  },\n  \"required\": [\n    \"tripDate\",\n    \"dispatch\",\n    \"arriveAtSite\",\n    \"jobStart\",\n    \"jobComplete\",\n    \"leaveFromSite\",\n    \"backToOffice\",\n    \"drivingHours\",\n    \"drivingMileage\",\n    \"waitingHours\",\n    \"workingHours\"\n  ],\n  \"additionalItems\": false\n};\n\n\ntests[\"Valid Schema\"] = tv4.validate(responseJSON, schema);\nif(tv4.error) {\n    console.log(tv4.error);\n    tests[\"error=\" + tv4.error + \", dataPath=\" + tv4.error.dataPath] = false;    \n}\n\n\n\n"
							}
						}
					],
					"request": {
						"url": "{{rootURL}}/api/v1/orders/7460608/jobs/0010/trips/1",
						"method": "PUT",
						"header": [
							{
								"key": "Content-Type",
								"value": "application/json",
								"description": ""
							}
						],
						"body": {
							"mode": "raw",
							"raw": "{\n   \"tripId\": 1,\n   \"tripDate\": 1465198905,\n   \"dispatch\": 1465369200,\n   \"arriveAtSite\": 1465374600,\n   \"jobStart\": 1465375500,\n   \"jobComplete\": 1465382700,\n   \"leaveFromSite\": 1465387200,\n   \"backToOffice\": 1465389000,\n   \"drivingHours\": 1.5,\n   \"drivingMileage\": 64,\n   \"waitingHours\": 0.5,\n   \"workingHours\":4\n}\n\n\n"
						},
						"description": "Updates the trip in the job"
					},
					"response": []
				},
				{
					"name": "/orders/:orderNo/jobs/:jobNo/trips/:tripNo",
					"event": [
						{
							"listen": "test",
							"script": {
								"type": "text/javascript",
								"exec": "tests[\"Response time is less than 5s\"] = responseTime < 5000;\ntests[\"Response code is 200\"] = responseCode.code === 200;\n\nvar responseJSON;\ntry {\n    var responseJSON = JSON.parse(responseBody);\n    tests[\"Response is JSON and has data\"] = responseJSON && (responseBody.length > 0);\n}\ncatch(e) {\n    var errorMessage = \"Cannot parse response, probably not a valid JSON.\";\n    tests[\"\"+errorMessage] = false;\n    console.log(errorMessage);\n}\n\n\nvar schema = {\n  \"$schema\": \"http://json-schema.org/draft-04/schema#\",\n  \"type\": \"object\",\n  \"properties\": {\n    \"tripId\": {\n      \"type\": \"integer\"\n    },\n    \"tripDate\": {\n      \"type\": \"integer\"\n    },\n    \"dispatch\": {\n      \"type\": \"integer\"\n    },\n    \"arriveAtSite\": {\n      \"type\": \"integer\"\n    },\n    \"jobStart\": {\n      \"type\": \"integer\"\n    },\n    \"jobComplete\": {\n      \"type\": \"integer\"\n    },\n    \"leaveFromSite\": {\n      \"type\": \"integer\"\n    },\n    \"backToOffice\": {\n      \"type\": \"integer\"\n    },\n    \"drivingHours\": {\n      \"type\": \"number\"\n    },\n    \"drivingMileage\": {\n      \"type\": \"integer\"\n    },\n    \"waitingHours\": {\n      \"type\": \"number\"\n    },\n    \"workingHours\": {\n      \"type\": \"integer\"\n    }\n  },\n  \"required\": [\n    \"tripNo\",\n    \"tripDate\",\n    \"dispatch\",\n    \"arriveAtSite\",\n    \"jobStart\",\n    \"jobComplete\",\n    \"leaveFromSite\",\n    \"backToOffice\",\n    \"drivingHours\",\n    \"drivingMileage\",\n    \"waitingHours\",\n    \"workingHours\"\n  ],\n  \"additionalItems\": false\n};\n\n\ntests[\"Valid Schema\"] = tv4.validate(responseJSON, schema);\nif(tv4.error) {\n    console.log(tv4.error);\n    tests[\"error=\" + tv4.error + \", dataPath=\" + tv4.error.dataPath] = false;    \n}\n\n\n\n"
							}
						}
					],
					"request": {
						"url": "{{rootURL}}/api/v1/orders/7460608/jobs/0010/trips/1",
						"method": "GET",
						"header": [],
						"body": {
							"mode": "formdata",
							"formdata": []
						},
						"description": "Retrieves a single trip for given order, job and trip"
					},
					"response": []
				},
				{
					"name": "/assistants",
					"event": [
						{
							"listen": "test",
							"script": {
								"type": "text/javascript",
								"exec": "tests[\"Response time is less than 5s\"] = responseTime < 5000;\ntests[\"Response code is 200\"] = responseCode.code === 200;\n\nvar responseJSON;\ntry {\n    var responseJSON = JSON.parse(responseBody);\n    tests[\"Response is JSON and has data\"] = responseJSON && (responseJSON.length > 0);\n}\ncatch(e) {\n    var errorMessage = \"Cannot parse response, probably not a valid JSON.\";\n    tests[\"\"+errorMessage] = false;\n    console.log(errorMessage);\n}\n\n\nvar schema = {\n  \"$schema\": \"http://json-schema.org/draft-04/schema#\",\n  \"type\": \"array\",\n  \"items\": {\n    \"type\": \"object\",\n    \"properties\": {\n        \"assistantId\": {\n            \"type\": \"string\"\n        },\n        \"userName\": {\n            \"type\": \"string\"\n        }\n    },\n    \"required\": [\"assistantId\", \"userName\"],\n    \"additionalItems\": false\n  },\n  \"minItems\": 1,\n  \"exclusiveMinimum\": true,\n  \"uniqueItems\": true\n};\n\n\ntests[\"Valid Schema\"] = tv4.validate(responseJSON, schema);\nif(tv4.error) {\n    console.log(tv4.error);\n    tests[\"error=\" + tv4.error + \", dataPath=\" + tv4.error.dataPath] = false;    \n}\n\n\n\n"
							}
						}
					],
					"request": {
						"url": "{{rootURL}}/api/v1/assistants",
						"method": "GET",
						"header": [
							{
								"key": "Authorization",
								"value": "Basic",
								"description": ""
							}
						],
						"body": {
							"mode": "formdata",
							"formdata": []
						},
						"description": "Retrieves a list of all assistants in VSET"
					},
					"response": []
				}
			]
		},
		{
			"name": "05 Jobs",
			"description": "",
			"item": [
				{
					"name": "/orders/:orderId/jobs",
					"event": [
						{
							"listen": "test",
							"script": {
								"type": "text/javascript",
								"exec": "tests[\"Response time is less than 5s\"] = responseTime < 5000;\ntests[\"Response code is 200\"] = responseCode.code === 200;\n\nvar responseJSON;\ntry {\n    var responseJSON = JSON.parse(responseBody);\n    tests[\"Response is JSON and has data\"] = responseJSON && (responseBody.length > 0);\n}\ncatch(e) {\n    var errorMessage = \"Cannot parse response, probably not a valid JSON.\";\n    tests[\"\"+errorMessage] = false;\n    console.log(errorMessage);\n}\n\n\nvar schema = {\n  \"$schema\": \"http://json-schema.org/draft-04/schema#\",\n  \"type\": \"array\",\n  \"items\": {\n    \"type\": \"object\",\n    \"properties\": {\n        \"jobId\": {\n            \"type\": \"integer\"\n        },\n        \"jobNo\": {\n            \"type\": \"string\"\n        },\n        \"jobName\": {\n            \"type\": \"string\"\n        },\n        \"minItems\": 1,\n        \"uniqueItems\": true\n    },\n    \"required\": [\"jobId\", \"jobNo\", \"jobName\"],\n    \"additionalItems\": false\n  },\n  \"minItems\": 1,\n  \"exclusiveMinimum\": true,\n  \"uniqueItems\": true\n};\n\n\ntests[\"Valid Schema\"] = tv4.validate(responseJSON, schema);\nif(tv4.error) {\n    console.log(tv4.error);\n    tests[\"error=\" + tv4.error + \", dataPath=\" + tv4.error.dataPath] = false;    \n}\n\n\n\n"
							}
						}
					],
					"request": {
						"url": "{{rootURL}}/api/v1/orders/7460608/jobs",
						"method": "GET",
						"header": [
							{
								"key": "Authorization",
								"value": "Basic",
								"description": ""
							}
						],
						"body": {
							"mode": "formdata",
							"formdata": []
						},
						"description": "Retrieves a list of jobs for a given order"
					},
					"response": []
				},
				{
					"name": "/orders/:orderId/jobs",
					"event": [
						{
							"listen": "test",
							"script": {
								"type": "text/javascript",
								"exec": "tests[\"Response time is less than 5s\"] = responseTime < 5000;\ntests[\"Response code is 200\"] = responseCode.code === 200;\n\nvar responseJSON;\ntry {\n    var responseJSON = JSON.parse(responseBody);\n    tests[\"Response is JSON and has data\"] = responseJSON && (responseBody.length > 0);\n}\ncatch(e) {\n    var errorMessage = \"Cannot parse response, probably not a valid JSON.\";\n    tests[\"\"+errorMessage] = false;\n    console.log(errorMessage);\n}\n\n\nvar schema = {\n  \"$schema\": \"http://json-schema.org/draft-04/schema#\",\n  \"type\": \"object\",\n  \"properties\": {\n      \"timestamp\": {\n          \"type\": \"integer\"\n      },\n      \"jobId\": {\n          \"type\": \"integer\"\n      },\n      \"jobNo\": {\n          \"type\": \"string\"\n      },\n      \"jobName\": {\n            \"type\": \"string\"\n      }\n    },\n    \"required\": [\"timestamp\", \"jobNo\", \"jobName\"],\n    \"additionalItems\": false\n};\n\n\ntests[\"Valid Schema\"] = tv4.validate(responseJSON, schema);\nif(tv4.error) {\n    console.log(tv4.error);\n    tests[\"error=\" + tv4.error + \", dataPath=\" + tv4.error.dataPath] = false;    \n}\n\n\n\n"
							}
						}
					],
					"request": {
						"url": "{{rootURL}}/api/v1/orders/7460608/jobs",
						"method": "POST",
						"header": [
							{
								"key": "Authorization",
								"value": "Basic",
								"description": ""
							},
							{
								"key": "Content-Type",
								"value": "application/json",
								"description": ""
							}
						],
						"body": {
							"mode": "raw",
							"raw": "{ \r\n \"timestamp\": 1466405316,\r\n \"failure\": \"new job tile\"\r\n}"
						},
						"description": "Creates a new job for a given order"
					},
					"response": []
				}
			]
		},
		{
			"name": "/parts",
			"event": [
				{
					"listen": "test",
					"script": {
						"type": "text/javascript",
						"exec": "tests[\"Response time is less than 3s\"] = responseTime < 3000;"
					}
				}
			],
			"request": {
				"url": "{{rootURL}}/api/v1/parts",
				"method": "GET",
				"header": [],
				"body": {
					"mode": "formdata",
					"formdata": []
				},
				"description": ""
			},
			"response": []
		},
		{
			"name": "/version",
			"event": [
				{
					"listen": "test",
					"script": {
						"type": "text/javascript",
						"exec": "\n"
					}
				}
			],
			"request": {
				"url": "{{rootURL}}/api/version",
				"method": "GET",
				"header": [],
				"body": {
					"mode": "formdata",
					"formdata": []
				},
				"description": "Retrieves an mockup api version"
			},
			"response": []
		}
	]
}