{
	"id": "d67accff-dc2b-286d-f84b-3f865389e6ec",
	"name": "MMKK-Local",
	"values": [
		{
			"key": "rootURL",
			"value": "http://127.0.0.1:9000",
			"type": "text",
			"enabled": true
		},
		{
			"key": "orderNo",
			"value": "7654388",
			"type": "text",
			"enabled": true
		},
		{
			"key": "assistantId",
			"value": "ec20505",
			"type": "text",
			"enabled": true
		}
	],
	"timestamp": 1470207988929,
	"synced": false,
	"syncedFilename": "",
	"team": null,
	"isDeleted": false
}